Time,Rx,Tx,Rx Ref. Ratio, Threshold Event
2019-03-06T07:45:35.128Z,,1.965000033378601,0.7599999904632568,N/A
2019-03-06T07:45:36.088Z,1.965000033378601,,0.7599999904632568,N/A
2019-03-06T07:45:36.312Z,2.0280001163482666,,0.7599999904632568,N/A
2019-03-06T07:45:37.128Z,,1.968000054359436,0.7599999904632568,N/A
2019-03-06T07:45:39.088Z,1.968000054359436,,0.7599999904632568,N/A
2019-03-06T07:45:39.400Z,2.26200008392334,,0.7599999904632568,N/A
2019-03-06T07:45:40.128Z,,1.9589999914169312,0.7599999904632568,N/A
2019-03-06T07:45:41.088Z,1.965000033378601,,0.7599999904632568,N/A
2019-03-06T07:45:41.312Z,2.0309998989105225,,0.7599999904632568,N/A
2019-03-06T07:45:42.128Z,,1.965000033378601,0.7599999904632568,N/A
2019-03-06T07:45:44.088Z,1.965000033378601,,0.7599999904632568,N/A
2019-03-06T07:45:44.400Z,2.26200008392334,,0.7599999904632568,N/A
2019-03-06T07:45:45.128Z,,1.9620000123977661,0.7599999904632568,N/A
2019-03-06T07:45:46.088Z,1.965000033378601,,0.7599999904632568,N/A
2019-03-06T07:45:46.312Z,2.0250000953674316,,0.7599999904632568,N/A
2019-03-06T07:45:47.128Z,,1.968000054359436,0.7599999904632568,N/A
2019-03-06T07:45:49.088Z,1.9620000123977661,,0.7599999904632568,N/A
2019-03-06T07:45:49.384Z,2.259000062942505,,0.7599999904632568,N/A
2019-03-06T07:45:50.128Z,,1.9559999704360962,0.7599999904632568,N/A
2019-03-06T07:45:51.088Z,1.968000054359436,,0.7599999904632568,N/A
2019-03-06T07:45:51.312Z,2.0280001163482666,,0.7599999904632568,N/A
2019-03-06T07:45:53.128Z,,1.9559999704360962,0.7599999904632568,N/A
2019-03-06T07:45:54.088Z,1.965000033378601,,0.7599999904632568,N/A
2019-03-06T07:45:54.408Z,2.26200008392334,,0.7599999904632568,N/A
2019-03-06T07:45:55.128Z,,1.9589999914169312,0.7599999904632568,N/A
2019-03-06T07:45:57.088Z,1.965000033378601,,0.7599999904632568,N/A
2019-03-06T07:45:57.312Z,2.0280001163482666,,0.7599999904632568,N/A
2019-03-06T07:45:58.128Z,,1.9739999771118164,0.7599999904632568,N/A
2019-03-06T07:45:59.088Z,1.9620000123977661,,0.7599999904632568,N/A
2019-03-06T07:45:59.392Z,2.259000062942505,,0.7599999904632568,N/A
2019-03-06T07:46:00.120Z,,4.827000141143799,0.7599999904632568,N/A
2019-03-06T07:46:03.120Z,,4.809000015258789,0.7599999904632568,N/A
2019-03-06T07:46:05.120Z,,4.809000015258789,0.7599999904632568,N/A
2019-03-06T07:46:08.120Z,,4.811999797821045,0.7599999904632568,N/A
2019-03-06T07:46:10.120Z,,4.800000190734863,0.7599999904632568,N/A
2019-03-06T07:46:13.120Z,,4.794000148773193,0.7599999904632568,N/A
2019-03-06T07:46:15.120Z,,4.806000232696533,0.7599999904632568,N/A
2019-03-06T07:46:18.120Z,,4.802999973297119,0.7599999904632568,N/A
2019-03-06T07:46:21.120Z,,4.796999931335449,0.7599999904632568,N/A
2019-03-06T07:46:23.120Z,,4.800000190734863,0.7599999904632568,N/A
2019-03-06T07:46:25.120Z,,4.809000015258789,0.7599999904632568,N/A
2019-03-06T07:46:28.120Z,,4.800000190734863,0.7599999904632568,N/A
2019-03-06T07:46:30.120Z,,4.790999889373779,0.7599999904632568,N/A
2019-03-06T07:46:33.120Z,,4.784999847412109,0.7599999904632568,N/A
2019-03-06T07:46:35.120Z,,4.7729997634887695,0.7599999904632568,N/A
2019-03-06T07:46:38.120Z,,4.796999931335449,0.7599999904632568,N/A
2019-03-06T07:46:41.120Z,,4.800000190734863,0.7599999904632568,N/A
2019-03-06T07:46:43.120Z,,4.802999973297119,0.7599999904632568,N/A
2019-03-06T07:46:46.120Z,,4.806000232696533,0.7599999904632568,N/A
2019-03-06T07:46:48.120Z,,4.796999931335449,0.7599999904632568,N/A
2019-03-06T07:46:50.120Z,,4.788000106811523,0.7599999904632568,N/A
2019-03-06T07:46:53.120Z,,4.809000015258789,0.7599999904632568,N/A
2019-03-06T07:46:55.120Z,,4.802999973297119,0.7599999904632568,N/A
2019-03-06T07:46:58.120Z,,4.806000232696533,0.7599999904632568,N/A
2019-03-06T07:47:00.120Z,,4.806000232696533,0.7599999904632568,N/A
2019-03-06T07:47:03.120Z,,4.806000232696533,0.7599999904632568,N/A
2019-03-06T07:47:05.120Z,,4.794000148773193,0.7599999904632568,N/A
2019-03-06T07:47:08.120Z,,4.776000022888184,0.7599999904632568,N/A
2019-03-06T07:47:10.120Z,,4.784999847412109,0.7599999904632568,N/A
2019-03-06T07:47:13.120Z,,4.784999847412109,0.7599999904632568,N/A
2019-03-06T07:47:16.120Z,,4.817999839782715,0.7599999904632568,N/A
2019-03-06T07:47:18.120Z,,4.776000022888184,0.7599999904632568,N/A
2019-03-06T07:47:21.120Z,,4.755000114440918,0.7599999904632568,N/A
2019-03-06T07:47:23.120Z,,4.730999946594238,0.7599999904632568,N/A
2019-03-06T07:47:26.120Z,,4.706999778747559,0.7599999904632568,N/A
2019-03-06T07:47:28.120Z,,4.677000045776367,0.7599999904632568,N/A
2019-03-06T07:47:30.120Z,,4.6529998779296875,0.7599999904632568,N/A
2019-03-06T07:47:33.120Z,,4.623000144958496,0.7599999904632568,N/A
2019-03-06T07:47:36.120Z,,4.584000110626221,0.7599999904632568,N/A
2019-03-06T07:47:38.120Z,,4.559999942779541,0.7599999904632568,N/A
2019-03-06T07:47:41.120Z,,4.539000034332275,0.7599999904632568,N/A
2019-03-06T07:47:43.120Z,,4.520999908447266,0.7599999904632568,N/A
2019-03-06T07:47:46.120Z,,4.5,0.7599999904632568,N/A
2019-03-06T07:47:49.120Z,,4.46999979019165,0.7599999904632568,N/A
2019-03-06T07:47:51.120Z,,4.442999839782715,0.7599999904632568,N/A
2019-03-06T07:47:54.120Z,,4.421999931335449,0.7599999904632568,N/A
2019-03-06T07:47:56.120Z,,4.401000022888184,0.7599999904632568,N/A
2019-03-06T07:47:59.120Z,,4.370999813079834,0.7599999904632568,N/A
2019-03-06T07:48:01.120Z,,4.343999862670898,0.7599999904632568,N/A
2019-03-06T07:48:04.120Z,,4.314000129699707,0.7599999904632568,N/A
2019-03-06T07:48:07.120Z,,4.304999828338623,0.7599999904632568,N/A
2019-03-06T07:48:09.120Z,,4.265999794006348,0.7599999904632568,N/A
2019-03-06T07:48:11.120Z,,4.254000186920166,0.7599999904632568,N/A
2019-03-06T07:48:14.120Z,,4.2270002365112305,0.7599999904632568,N/A
2019-03-06T07:48:19.120Z,,4.190999984741211,0.7599999904632568,N/A
2019-03-06T07:48:22.120Z,,4.1579999923706055,0.7599999904632568,N/A
2019-03-06T07:48:24.120Z,,4.139999866485596,0.7599999904632568,N/A
2019-03-06T07:48:27.120Z,,4.116000175476074,0.7599999904632568,N/A
2019-03-06T07:48:29.120Z,,4.09499979019165,0.7599999904632568,N/A
2019-03-06T07:48:32.120Z,,4.071000099182129,0.7599999904632568,N/A
2019-03-06T07:48:34.120Z,,4.056000232696533,0.7599999904632568,N/A
2019-03-06T07:48:37.120Z,,4.044000148773193,0.7599999904632568,N/A
2019-03-06T07:48:39.120Z,,4.007999897003174,0.7599999904632568,N/A
2019-03-06T07:48:41.120Z,,3.999000072479248,0.7599999904632568,N/A
2019-03-06T07:48:44.120Z,,3.9690001010894775,0.7599999904632568,N/A
2019-03-06T07:48:46.120Z,,3.9630000591278076,0.7599999904632568,N/A
2019-03-06T07:48:49.120Z,,3.930000066757202,0.7599999904632568,N/A
2019-03-06T07:48:52.120Z,,3.9119999408721924,0.7599999904632568,N/A
2019-03-06T07:48:54.120Z,,3.8970000743865967,0.7599999904632568,N/A
2019-03-06T07:48:57.120Z,,3.878999948501587,0.7599999904632568,N/A
2019-03-06T07:48:59.120Z,,3.8550000190734863,0.7599999904632568,N/A
2019-03-06T07:49:02.120Z,,3.8429999351501465,0.7599999904632568,N/A
2019-03-06T07:49:04.120Z,,3.815999984741211,0.7599999904632568,N/A
2019-03-06T07:49:07.120Z,,3.806999921798706,0.7599999904632568,N/A
2019-03-06T07:49:09.120Z,,3.7950000762939453,0.7599999904632568,N/A
2019-03-06T07:49:12.120Z,,3.759000062942505,0.7599999904632568,N/A
2019-03-06T07:49:14.120Z,,3.746999979019165,0.7599999904632568,N/A
2019-03-06T07:49:17.120Z,,3.7200000286102295,0.7599999904632568,N/A
2019-03-06T07:49:19.120Z,,3.7019999027252197,0.7599999904632568,N/A
2019-03-06T07:49:22.120Z,,3.677999973297119,0.7599999904632568,N/A
2019-03-06T07:49:24.120Z,,3.6570000648498535,0.7599999904632568,N/A
2019-03-06T07:49:27.120Z,,3.6449999809265137,0.7599999904632568,N/A
2019-03-06T07:49:29.120Z,,3.632999897003174,0.7599999904632568,N/A
2019-03-06T07:49:32.128Z,,3.6029999256134033,0.7599999904632568,N/A
2019-03-06T07:49:34.120Z,,3.5940001010894775,0.7599999904632568,N/A
2019-03-06T07:49:37.120Z,,3.566999912261963,0.7599999904632568,N/A
2019-03-06T07:49:39.120Z,,3.558000087738037,0.7599999904632568,N/A
2019-03-06T07:49:42.128Z,,3.5309998989105225,0.7599999904632568,N/A
2019-03-06T07:49:44.120Z,,3.5190000534057617,0.7599999904632568,N/A
2019-03-06T07:49:47.120Z,,3.503999948501587,0.7599999904632568,N/A
2019-03-06T07:49:49.128Z,,3.4800000190734863,0.7599999904632568,N/A
2019-03-06T07:49:52.120Z,,3.4709999561309814,0.7599999904632568,N/A
2019-03-06T07:49:54.128Z,,1.9589999914169312,0.7599999904632568,N/A
2019-03-06T07:49:56.088Z,1.9589999914169312,,0.7599999904632568,N/A
2019-03-06T07:49:56.784Z,1.9980000257492065,,0.7599999904632568,N/A
2019-03-06T07:49:57.128Z,,1.968000054359436,0.7599999904632568,N/A
2019-03-06T07:49:58.088Z,1.9529999494552612,,0.7599999904632568,N/A
2019-03-06T07:49:58.784Z,2.003999948501587,,0.7599999904632568,N/A
2019-03-06T07:50:00.128Z,,1.9559999704360962,0.7599999904632568,N/A
2019-03-06T07:50:01.088Z,1.9529999494552612,,0.7599999904632568,N/A
2019-03-06T07:50:01.784Z,2.000999927520752,,0.7599999904632568,N/A
2019-03-06T07:50:02.128Z,,1.9620000123977661,0.7599999904632568,N/A
2019-03-06T07:50:03.096Z,1.9589999914169312,,0.7599999904632568,N/A
2019-03-06T07:50:03.784Z,2.003999948501587,,0.7599999904632568,N/A
2019-03-06T07:50:05.128Z,,1.9709999561309814,0.7599999904632568,N/A
2019-03-06T07:50:06.088Z,1.9500000476837158,,0.7599999904632568,N/A
2019-03-06T07:50:06.784Z,1.9980000257492065,,0.7599999904632568,N/A
2019-03-06T07:50:07.128Z,,1.965000033378601,0.7599999904632568,N/A
2019-03-06T07:50:09.088Z,1.965000033378601,,0.7599999904632568,N/A
2019-03-06T07:50:09.784Z,1.9950000047683716,,0.7599999904632568,N/A
2019-03-06T07:50:10.128Z,,1.9709999561309814,0.7599999904632568,N/A
2019-03-06T07:50:11.096Z,1.9559999704360962,,0.7599999904632568,N/A
2019-03-06T07:50:11.784Z,2.006999969482422,,0.7599999904632568,N/A
2019-03-06T07:50:13.128Z,,1.9620000123977661,0.7599999904632568,N/A
2019-03-06T07:50:14.088Z,1.9529999494552612,,0.7599999904632568,N/A
2019-03-06T07:50:14.776Z,2.003999948501587,,0.7599999904632568,N/A
2019-03-06T07:50:15.128Z,,1.968000054359436,0.7599999904632568,N/A
2019-03-06T07:50:16.080Z,1.9559999704360962,,0.7599999904632568,N/A
2019-03-06T07:50:16.776Z,2.003999948501587,,0.7599999904632568,N/A
